World Happiness Analysis-Kaggle dataset – World Happiness with tidyverse
…
Show code

#Q2: Which countries and years included in the dataset?
#Q2.1: Unique list of countries
happiness |>
  distinct(country_name) |> #distinct() finds unique values
  arrange(country_name) #arrange() sorts alphabetically

# A tibble: 165 × 1
   country_name
   <chr>       
 1 Afghanistan 
 2 Albania     
 3 Algeria     
 4 Angola      
 5 Argentina   
 6 Armenia     
 7 Australia   
 8 Austria     
 9 Azerbaijan  
10 Bahrain     
# ℹ 155 more rows
…
Show code

#Q3: How many years of data does each country have?
happiness |>
  count(country_name, sort = TRUE) #sort used to sort result in descending order

# A tibble: 165 × 2
   country_name     n
   <chr>        <int>
 1 Argentina       18
 2 Bangladesh      18
 3 Bolivia         18
 4 Brazil          18
 5 Cambodia        18
 6 Cameroon        18
 7 Canada          18
 8 Chile           18
 9 Colombia        18
10 Costa Rica      18
# ℹ 155 more rows
…
