World Happiness Analysis-Kaggle dataset – World Happiness with tidyverse
…
Show code

#Q2: Which countries and years included in the dataset?
#Q2.1: Unique list of countries
happiness |>
  distinct(country_name) |> #distinct() finds unique values
  arrange(country_name) #arrange() sorts alphabetically

# A tibble: 165 × 1
   country_name
   <chr>       
 1 Afghanistan 
 2 Albania     
 3 Algeria     
 4 Angola      
 5 Argentina   
 6 Armenia     
 7 Australia   
 8 Austria     
 9 Azerbaijan  
10 Bahrain     
# ℹ 155 more rows
…
Show code

#Q3: How many years of data does each country have?
happiness |>
  count(country_name, sort = TRUE) #sort used to sort result in descending order

# A tibble: 165 × 2
   country_name     n
   <chr>        <int>
 1 Argentina       18
 2 Bangladesh      18
 3 Bolivia         18
 4 Brazil          18
 5 Cambodia        18
 6 Cameroon        18
 7 Canada          18
 8 Chile           18
 9 Colombia        18
10 Costa Rica      18
# ℹ 155 more rows
…
# Step 2: Optional ordered factor 
happiness_grouped <- happiness_grouped |>
  mutate(
    ladder_group = factor(ladder_group, #A factor is a categorical variable with controlled order
                          levels = c("Low", "Medium", "High"))
  )
happiness_grouped

# A tibble: 2,363 × 12
   country_name  year life_ladder log_gdp_per_capita social_support
   <chr>        <dbl>       <dbl>              <dbl>          <dbl>
 1 Afghanistan   2008        3.72               7.35          0.451
 2 Afghanistan   2009        4.40               7.51          0.552
 3 Afghanistan   2010        4.76               7.61          0.539
 4 Afghanistan   2011        3.83               7.58          0.521
 5 Afghanistan   2012        3.78               7.66          0.521
 6 Afghanistan   2013        3.57               7.68          0.484
 7 Afghanistan   2014        3.13               7.67          0.526
 8 Afghanistan   2015        3.98               7.65          0.529
 9 Afghanistan   2016        4.22               7.65          0.559
10 Afghanistan   2017        2.66               7.65          0.491
# ℹ 2,353 more rows
# ℹ 7 more variables: healthy_life_expectancy_at_birth <dbl>,
#   freedom_to_make_life_choices <dbl>, generosity <dbl>,
#   perceptions_of_corruption <dbl>, positive_affect <dbl>,
#   negative_affect <dbl>, ladder_group <fct>
…
[1] 5.483566

Show code

#Step2: filter countries avove this mean
above_mean <- happiness |>
  filter(life_ladder > global_mean_happiness) |>
  arrange(desc(life_ladder))

above_mean

# A tibble: 1,153 × 11
   country_name  year life_ladder log_gdp_per_capita social_support
   <chr>        <dbl>       <dbl>              <dbl>          <dbl>
 1 Denmark       2005        8.02               10.8          0.972
 2 Denmark       2008        7.97               10.9          0.954
 3 Finland       2020        7.89               10.8          0.962
 4 Finland       2018        7.86               10.8          0.962
 5 Denmark       2007        7.83               10.9          0.954
 6 Finland       2021        7.79               10.8          0.97 
 7 Denmark       2011        7.79               10.8          0.962
 8 Finland       2017        7.79               10.8          0.964
 9 Finland       2019        7.78               10.8          0.937
10 Switzerland   2012        7.78               11.1          0.947
# ℹ 1,143 more rows
# ℹ 6 more variables: healthy_life_expectancy_at_birth <dbl>,
#   freedom_to_make_life_choices <dbl>, generosity <dbl>,
#   perceptions_of_corruption <dbl>, positive_affect <dbl>,
#   negative_affect <dbl>
…
